<?xml version="1.0" encoding="utf-8"?>
<!-- Generator: Adobe Illustrator 23.0.4, SVG Export Plug-In . SVG Version: 6.00 Build 0)  -->
<svg version="1.1" id="Capa_1" xmlns="http://www.w3.org/2000/svg" xmlns:xlink="http://www.w3.org/1999/xlink" x="0px" y="0px"
	 viewBox="0 0 68 50" style="enable-background:new 0 0 68 50;" xml:space="preserve">
<style type="text/css">
	.st0{filter:url(#Adobe_OpacityMaskFilter);}
	.st1{fill-rule:evenodd;clip-rule:evenodd;fill:#FFFFFF;}
	.st2{mask:url(#mask-2_1_);fill-rule:evenodd;clip-rule:evenodd;fill:#006341;}
	.st3{filter:url(#Adobe_OpacityMaskFilter_1_);}
	.st4{mask:url(#mask-4_1_);fill-rule:evenodd;clip-rule:evenodd;fill:#006341;}
	.st5{filter:url(#Adobe_OpacityMaskFilter_2_);}
	.st6{mask:url(#mask-6_1_);fill-rule:evenodd;clip-rule:evenodd;fill:#006341;}
	.st7{fill-rule:evenodd;clip-rule:evenodd;fill:#006341;}
</style>
<title>Empleados</title>
<desc>Created with Sketch.</desc>
<g id="Page-1">
	<g id="Personas-Fisicas-Mantenimientos-Internos" transform="translate(-502.000000, -217.000000)">
		<g id="Empleados" transform="translate(502.000000, 216.000000)">
			<g id="Group-3" transform="translate(16.000000, 7.678100)">
				<g id="Clip-2">
				</g>
				<defs>
					<filter id="Adobe_OpacityMaskFilter" filterUnits="userSpaceOnUse" x="0.4" y="0.8" width="33.9" height="42.2">
						<feColorMatrix  type="matrix" values="1 0 0 0 0  0 1 0 0 0  0 0 1 0 0  0 0 0 1 0"/>
					</filter>
				</defs>
				<mask maskUnits="userSpaceOnUse" x="0.4" y="0.8" width="33.9" height="42.2" id="mask-2_1_">
					<g class="st0">
						<polygon id="path-1_1_" class="st1" points="0.4,0.8 34.2,0.8 34.2,43 0.4,43 						"/>
					</g>
				</mask>
				<path id="Fill-1" class="st2" d="M34.2,43H0.4v-1.5c0-0.6,0-1.2,0-1.8c0-1.3,0-2.7,0-4c0.1-5.4,2.1-9.8,6.1-13.1
					c1-0.9,2.2-1.5,3.4-2.1c0.3-0.2,0.6-0.3,0.9-0.5c0.6-0.4,1.4-0.1,1.8,0.1c2.8,1.6,5.6,1.7,8.7,0.4l0.1,0c0,0,0.1,0,0.1,0
					c1.4-1.2,2.8-0.5,3.4-0.1c6.1,3.3,9.3,8.5,9.4,15.5c0,1.3,0,2.6,0,3.8c0,0.6,0,1.1,0,1.7V43z M2.1,41.2h30.3c0-0.5,0-1.1,0-1.6
					c0-1.2,0-2.5,0-3.8c-0.1-6.4-2.9-10.9-8.5-13.9c-0.8-0.5-1.1-0.4-1.4-0.1c-0.2,0.2-0.4,0.3-0.6,0.3l-0.1,0
					c-3.5,1.5-7,1.3-10.2-0.5c-0.1,0-0.1-0.1-0.2-0.1c-0.3,0.1-0.5,0.3-0.8,0.4c-1.1,0.6-2.2,1.2-3.1,1.9C4,26.9,2.2,30.9,2.1,35.7
					c0,1.3,0,2.7,0,4C2.1,40.2,2.1,40.7,2.1,41.2L2.1,41.2z M17.3,19.5c-2.5,0-4.8-1-6.6-2.7c-1.8-1.8-2.8-4.1-2.8-6.6
					c0-5.2,4.2-9.4,9.3-9.4c2.5,0,4.8,1,6.6,2.7c1.8,1.8,2.8,4.1,2.8,6.6C26.7,15.3,22.5,19.5,17.3,19.5L17.3,19.5z M17.3,2.6
					L17.3,2.6c-4.2,0-7.6,3.4-7.6,7.6c0,2,0.8,3.9,2.2,5.4c1.4,1.4,3.3,2.2,5.3,2.2h0c4.2,0,7.6-3.4,7.6-7.6c0-2-0.8-3.9-2.2-5.4
					C21.2,3.3,19.3,2.6,17.3,2.6L17.3,2.6z"/>
			</g>
			<g id="Group-6" transform="translate(40.000000, 0.678100)">
				<g id="Clip-5">
				</g>
				<defs>
					<filter id="Adobe_OpacityMaskFilter_1_" filterUnits="userSpaceOnUse" x="0.9" y="0.3" width="18.7" height="18.7">
						<feColorMatrix  type="matrix" values="1 0 0 0 0  0 1 0 0 0  0 0 1 0 0  0 0 0 1 0"/>
					</filter>
				</defs>
				<mask maskUnits="userSpaceOnUse" x="0.9" y="0.3" width="18.7" height="18.7" id="mask-4_1_">
					<g class="st3">
						<polygon id="path-3_1_" class="st1" points="0.9,0.3 19.6,0.3 19.6,19 0.9,19 						"/>
					</g>
				</mask>
				<path id="Fill-4" class="st4" d="M10.3,19L10.3,19c5.2,0,9.4-4.2,9.4-9.4c0-2.5-1-4.8-2.8-6.6c-1.8-1.8-4.1-2.7-6.6-2.7
					c-5.2,0-9.3,4.2-9.3,9.4c0,2.5,1,4.8,2.8,6.6C5.4,18.1,7.8,19,10.3,19 M10.2,2.1L10.2,2.1c2,0,3.9,0.8,5.4,2.2
					c1.4,1.4,2.2,3.3,2.2,5.4c0,4.2-3.4,7.6-7.6,7.6h0c-2,0-3.9-0.8-5.3-2.2c-1.4-1.4-2.2-3.3-2.2-5.4C2.7,5.5,6.1,2.1,10.2,2.1"/>
			</g>
			<g id="Group-9" transform="translate(7.000000, 0.678100)">
				<g id="Clip-8">
				</g>
				<defs>
					<filter id="Adobe_OpacityMaskFilter_2_" filterUnits="userSpaceOnUse" x="0.6" y="0.3" width="18.7" height="18.7">
						<feColorMatrix  type="matrix" values="1 0 0 0 0  0 1 0 0 0  0 0 1 0 0  0 0 0 1 0"/>
					</filter>
				</defs>
				<mask maskUnits="userSpaceOnUse" x="0.6" y="0.3" width="18.7" height="18.7" id="mask-6_1_">
					<g class="st5">
						<polygon id="path-5_1_" class="st1" points="0.6,0.3 19.3,0.3 19.3,19 0.6,19 						"/>
					</g>
				</mask>
				<path id="Fill-7" class="st6" d="M9.9,19L9.9,19c5.2,0,9.4-4.2,9.4-9.4c0-2.5-1-4.8-2.8-6.6c-1.8-1.8-4.1-2.7-6.6-2.7
					c-5.2,0-9.3,4.2-9.3,9.4c0,2.5,1,4.8,2.8,6.6C5.1,18.1,7.4,19,9.9,19 M9.9,2.1L9.9,2.1c2,0,3.9,0.8,5.4,2.2
					c1.4,1.4,2.2,3.3,2.2,5.4c0,4.2-3.4,7.6-7.6,7.6h0c-2,0-3.9-0.8-5.3-2.2c-1.4-1.4-2.2-3.3-2.2-5.4C2.3,5.5,5.7,2.1,9.9,2.1"/>
			</g>
			<path id="Fill-10" class="st7" d="M67.2,36.1c-0.1-7-3.3-12.2-9.4-15.5c-0.6-0.3-2-1.1-3.4,0.1c0,0-0.1,0-0.1,0l-0.1,0
				c-3,1.3-5.9,1.2-8.7-0.4c-0.4-0.2-1.2-0.5-1.8-0.1c-0.3,0.2-0.6,0.3-0.9,0.5c-0.9,0.5-1.8,1-2.7,1.6c0.4,0.5,0.7,1,0.9,1.5
				c0.8-0.6,1.7-1.1,2.6-1.6c0.3-0.1,0.6-0.3,0.8-0.4c0.1,0,0.2,0,0.2,0.1c3.3,1.8,6.7,2,10.2,0.5l0.1,0c0.1-0.1,0.4-0.2,0.6-0.3
				c0.3-0.3,0.5-0.4,1.4,0.1c5.6,3,8.4,7.6,8.5,13.9c0,1.2,0,2.5,0,3.8c0,0.5,0,1.1,0,1.6H48.3c0.1,0.6,0.1,1.2,0.1,1.8h18.8v-1.6
				c0-0.6,0-1.1,0-1.7C67.2,38.6,67.2,37.3,67.2,36.1"/>
			<path id="Fill-12" class="st7" d="M26.5,21.9c-0.7-0.5-1.3-0.9-2.1-1.3c-0.6-0.3-2-1.1-3.4,0.1c0,0-0.1,0-0.1,0l-0.1,0
				c-3,1.3-5.9,1.2-8.7-0.4c-0.4-0.2-1.2-0.5-1.8-0.1c-0.3,0.2-0.6,0.3-0.9,0.5c-1.1,0.6-2.3,1.3-3.4,2.1c-4,3.3-6,7.7-6.1,13.1
				c0,1.3,0,2.7,0,4c0,0.6,0,1.2,0,1.8v1.5h18.1c0-0.6,0.1-1.2,0.1-1.8H1.8c0-0.5,0-1,0-1.5c0-1.3,0-2.7,0-4
				c0.1-4.8,1.9-8.8,5.4-11.7c0.9-0.7,2-1.3,3.1-1.9c0.3-0.1,0.5-0.3,0.8-0.4c0.1,0,0.2,0,0.2,0.1c3.3,1.8,6.7,2,10.2,0.5l0.1,0
				c0.1-0.1,0.4-0.2,0.6-0.3c0.3-0.3,0.5-0.4,1.4,0.1c0.7,0.4,1.3,0.8,1.9,1.2C25.8,22.8,26.1,22.3,26.5,21.9"/>
		</g>
	</g>
</g>
</svg>
