<?xml version="1.0" encoding="utf-8"?>
<!-- Generator: Adobe Illustrator 23.0.4, SVG Export Plug-In . SVG Version: 6.00 Build 0)  -->
<svg version="1.1" id="Capa_1" xmlns="http://www.w3.org/2000/svg" xmlns:xlink="http://www.w3.org/1999/xlink" x="0px" y="0px"
	 viewBox="0 0 50 50" style="enable-background:new 0 0 50 50;" xml:space="preserve">
<style type="text/css">
	.st0{fill:#006341;}
</style>
<title>Mantenimientos</title>
<desc>Created with Sketch.</desc>
<g id="Page-1">
	<g id="Personas-Fisicas-Home" transform="translate(-1063.000000, -219.000000)">
		<g id="Mantenimientos" transform="translate(1063.000000, 219.000000)">
			<path id="Shape" class="st0" d="M6.4,24.2h8v-4.8h-8V24.2z M8,21h4.8v1.6H8V21z"/>
			<polygon id="Path" class="st0" points="22.5,19.4 24.1,19.4 24.1,21 22.5,21 			"/>
			<polygon class="st0" points="19.3,19.4 20.9,19.4 20.9,21 19.3,21 			"/>
			<path class="st0" d="M6.4,43.5h8v-4.8h-8V43.5z M8,40.3h4.8v1.6H8V40.3z"/>
			<polygon class="st0" points="22.5,38.7 24.1,38.7 24.1,40.3 22.5,40.3 			"/>
			<polygon class="st0" points="22.5,41.9 24.1,41.9 24.1,43.5 22.5,43.5 			"/>
			<polygon class="st0" points="19.3,41.9 20.9,41.9 20.9,43.5 19.3,43.5 			"/>
			<polygon class="st0" points="19.3,38.7 20.9,38.7 20.9,40.3 19.3,40.3 			"/>
			<polygon class="st0" points="6.4,29 8,29 8,30.6 6.4,30.6 			"/>
			<polygon class="st0" points="6.4,32.2 8,32.2 8,33.8 6.4,33.8 			"/>
			<polygon class="st0" points="9.6,32.2 11.2,32.2 11.2,33.8 9.6,33.8 			"/>
			<polygon class="st0" points="9.6,29 11.2,29 11.2,30.6 9.6,30.6 			"/>
			<path class="st0" d="M43.4,21c-0.6,0-1.2,0.1-1.8,0.3L37.3,17l4.3-4.3c0.8-0.8,1.8-1.2,3.1-1.4c2.6-0.3,4.8-2.4,5.1-5.1
				c0.1-0.7,0-1.5-0.2-2.2l-0.4-1.3l-3.6,3.6L44,5.9l-0.5-1.6l3.6-3.6l-1.3-0.4c-0.7-0.2-1.4-0.3-2.2-0.2c-2.6,0.3-4.8,2.4-5.1,5.1
				c-0.1,1.2-0.6,2.3-1.3,3.1l-4.3,4.3l-4.3-4.3c-0.8-0.8-1.2-1.8-1.3-2.8l0-0.1c-0.2-2.5-2-4.6-4.4-5.1C22,0,21,0.1,20.1,0.3
				l-1.3,0.4l3.6,3.6l-0.5,1.6l-1.6,0.5l-3.6-3.6l-0.4,1.3C16,5,16,6,16.2,7c0.5,2.3,2.6,4.1,5.1,4.4l0.2,0c1.1,0.1,2.1,0.6,2.8,1.3
				l0.3,0.3H4c-2.2,0-4,1.8-4,4v28.9c0,2.2,1.8,4,4,4h22.5c2.2,0,4-1.8,4-4V23.7l2.4-2.4l4.3,4.3c-0.2,0.6-0.3,1.2-0.3,1.8
				c0,3.5,2.9,6.4,6.4,6.4s6.4-2.9,6.4-6.4S46.9,21,43.4,21L43.4,21z M38.4,9.5c1-1,1.7-2.5,1.8-4.1c0.2-1.9,1.7-3.4,3.6-3.6
				c0,0,0,0,0,0l-2.2,2.2l1.1,3.3L46,8.2l2.2-2.2c0,0,0,0,0,0C48,8,46.4,9.5,44.5,9.7c-1.6,0.1-3,0.8-4.1,1.8L27.5,24.5
				c-1,1-1.7,2.5-1.8,4.1c-0.2,1.9-1.7,3.4-3.6,3.6c0,0,0,0,0,0l2.2-2.2l-1.1-3.3l-3.3-1.1l-2.2,2.2c0,0,0,0,0,0
				c0.2-1.9,1.7-3.4,3.7-3.6c1.6-0.1,3-0.8,4.1-1.8L38.4,9.5z M16.6,25.8H4.8v-8h20.9v2.1l-1.4,1.4c-0.8,0.8-1.8,1.2-3.1,1.4
				C19.2,22.8,17.5,24.1,16.6,25.8z M27.3,15.7l1.3,1.3l-1.3,1.3V15.7z M25.7,16.2H4.8v-1.6h20.9V16.2z M4.8,37h20.9v8H4.8V37z
				 M25.7,35.4H4.8v-8h11.3c0,0.1,0,0.2,0,0.3c-0.1,0.7,0,1.5,0.2,2.2l0.4,1.3l3.6-3.6l1.6,0.5l0.5,1.6l-3.6,3.6l1.3,0.4
				c0.5,0.2,1.1,0.2,1.6,0.2c0.2,0,0.4,0,0.5,0c1.3-0.1,2.6-0.8,3.5-1.7V35.4z M21.6,9.7l-0.2,0c-1.8-0.2-3.3-1.4-3.7-3.1
				c0-0.2-0.1-0.4-0.1-0.6l2.2,2.2l3.3-1.1l1.1-3.3L22,1.7c0.2,0,0.4,0,0.6,0.1c1.7,0.4,2.9,1.9,3.1,3.7l0,0.1
				c0.1,1.4,0.8,2.8,1.8,3.8l4.3,4.3l-2.1,2.1l-4.3-4.3C24.4,10.5,23,9.9,21.6,9.7L21.6,9.7z M28.9,45.9c0,1.3-1.1,2.4-2.4,2.4H4
				c-1.3,0-2.4-1.1-2.4-2.4V17c0-1,0.7-1.9,1.6-2.3v30.4c0,0.9,0.7,1.6,1.6,1.6h20.9c0.9,0,1.6-0.7,1.6-1.6V28.6
				c0.1-1.2,0.6-2.2,1.3-3l0.3-0.3V45.9z M43.4,32.2c-2.7,0-4.8-2.2-4.8-4.8c0-0.6,0.1-1.2,0.3-1.7l0.2-0.5l-5-5l2.1-2.1l5,5
				l0.5-0.2c0.6-0.2,1.1-0.3,1.7-0.3c2.7,0,4.8,2.2,4.8,4.8S46,32.2,43.4,32.2L43.4,32.2z"/>
			<path class="st0" d="M43.4,24.2c-1.8,0-3.2,1.4-3.2,3.2c0,1.8,1.4,3.2,3.2,3.2c1.8,0,3.2-1.4,3.2-3.2
				C46.6,25.6,45.1,24.2,43.4,24.2z M43.4,29c-0.9,0-1.6-0.7-1.6-1.6c0-0.9,0.7-1.6,1.6-1.6s1.6,0.7,1.6,1.6
				C45,28.3,44.3,29,43.4,29z"/>
		</g>
	</g>
</g>
</svg>
